<?xml version="1.0" encoding="utf-8"?>
<svg version="1.1" xmlns="http://www.w3.org/2000/svg" xmlns:xlink="http://www.w3.org/1999/xlink" x="0px" y="0px"
	 viewBox="0 0 100 100">
<g>
	<rect x="41.8" y="45.5" transform="matrix(0 -1 1 0 11.25 132.25)" width="60" height="30"/>
	<rect x="-16.3" y="30.5" transform="matrix(0 -1 1 0 -16.75 74.25)" width="90" height="30"/>
	<rect x="48" y="48.5" transform="matrix(0 -1 1 0 -47.5 147.5)" width="4" height="98"/>
</g>
</svg>
