<?xml version="1.0" encoding="utf-8"?>
<svg version="1.1" xmlns="http://www.w3.org/2000/svg" xmlns:xlink="http://www.w3.org/1999/xlink" x="0px" y="0px"
	 viewBox="-35 -25 68 57">
<g style="transform:scale(0.45)translate(102px,132px)rotate(180deg)">
	<g style="transform:translate(105px, 101px)">
		<polygon style="opacity:0.25;fill:#9A999E;" points="-26.7,44.1 76.3,-15.4 26.8,-44.1 -76.3,15.5 	"/>
		<polygon style="opacity:0.62;fill:#EDEEF0;" points="-76.3,15.5 26.8,-44.1 26.8,-24.6 -76.3,35 	"/>
	</g>
	<g style="transform:scale(-1,1)rotate(180deg)translate(3px, -211px)">
		<polygon style="fill:#AEADB3;" points="172.1,109.2 74.5,52.7 28.7,79.4 126.3,135.8 126.3,151.4 172.1,124.8 "/>
		<polygon highlightable="" style="fill:#AEADB3;" points="172.1,109.2 74.5,52.7 28.7,79.4 126.3,135.8 126.3,151.4 172.1,124.8 "/>
	</g>
	<g style="transform:translate(105px, 110px)">
		<polygon style="opacity:0.35;fill:#EDEEF0;" points="-26.7,53.8 76.3,-5.7 26.8,-34.4 -76.3,25.2 	"/>
		<polygon style="opacity:0.62;fill:#EDEEF0;" points="23.9,-50.2 -73.8,6 -73.7,21.9 24,-34.6 	"/>
		<polygon style="opacity:0.35;fill:#C2C3C9;" points="76.4,-25.2 26.8,-53.8 26.8,-34.4 76.3,-5.7 	"/>
		<polygon style="opacity:0.62;fill:#EDEEF0;" points="-76.4,5.8 26.8,-53.8 26.8,-34.4 -76.3,25.2 	"/>
		<path style="fill:#5A5A59;" d="M20.8-32.7l-91.5,52.8c-1.7,1-3,0.6-3-0.9V8.6c0-1.4,1.4-3.4,3-4.4l91.5-52.8
			c1.7-1,3-0.6,3,0.9v10.6C23.9-35.6,22.5-33.7,20.8-32.7z M-61.7,3.4c0-0.8-0.6-1.1-1.3-0.6l-0.5,0.3c-0.7,0.4-1.3,1.4-1.3,2.2v7.2
			c0,0.8,0.6,1.1,1.3,0.6l0.5-0.3c0.7-0.4,1.3-1.4,1.3-2.2V3.4z M-55.8,0c0-0.8-0.6-1.1-1.3-0.6l-0.5,0.3C-58.4,0.1-59,1.1-59,1.9V9
			c0,0.8,0.6,1.1,1.3,0.6l0.5-0.3c0.7-0.4,1.3-1.4,1.3-2.2V0z M-49.9-3.4c0-0.8-0.6-1.1-1.3-0.6l-0.5,0.3c-0.7,0.4-1.3,1.4-1.3,2.2
			v7.2c0,0.8,0.6,1.1,1.3,0.6l0.5-0.3c0.7-0.4,1.3-1.4,1.3-2.2V-3.4z M-44-6.8c0-0.8-0.6-1.1-1.3-0.6l-0.5,0.3
			c-0.7,0.4-1.3,1.4-1.3,2.2v7.2c0,0.8,0.6,1.1,1.3,0.6l0.5-0.3c0.7-0.4,1.3-1.4,1.3-2.2V-6.8z M-38.1-10.2c0-0.8-0.6-1.1-1.3-0.6
			l-0.5,0.3c-0.7,0.4-1.3,1.4-1.3,2.2v7.2c0,0.8,0.6,1.1,1.3,0.6l0.5-0.3c0.7-0.4,1.3-1.4,1.3-2.2V-10.2z M-32.1-13.7
			c0-0.8-0.6-1.1-1.3-0.6L-34-14c-0.7,0.4-1.3,1.4-1.3,2.2v7.2c0,0.8,0.6,1.1,1.3,0.6l0.5-0.3c0.7-0.4,1.3-1.4,1.3-2.2V-13.7z"/>
	</g>
</g>
</svg>
